{
    "relationships": [
        {
            "relationshipName": "jardin",
            "otherEntityName": "jardin",
            "relationshipType": "many-to-one",
            "otherEntityField": "codigoJardin"
        },
        {
            "relationshipName": "nivelJardin",
            "otherEntityName": "nivelJardin",
            "relationshipType": "many-to-one",
            "otherEntityField": "id"
        }
    ],
    "fields": [
        {
            "fieldName": "nombreGrupo",
            "fieldType": "String",
            "fieldValidateRules": [
                "required"
            ]
        },
        {
            "fieldName": "capacidadGrupo",
            "fieldType": "Double"
        },
        {
            "fieldName": "matriculaGrupo",
            "fieldType": "Double"
        },
        {
            "fieldName": "asistenciaGrupo",
            "fieldType": "Double"
        }
    ],
    "changelogDate": "20161121180605",
    "dto": "no",
    "service": "no",
    "entityTableName": "grupo",
    "pagination": "no"
}
