{
    "relationships": [
        {
            "relationshipName": "jardin",
            "otherEntityName": "jardin",
            "relationshipType": "many-to-one",
            "otherEntityField": "id"
        }
    ],
    "fields": [
        {
            "fieldName": "nombreNivel",
            "fieldType": "String",
            "fieldValidateRules": [
                "required"
            ]
        }
    ],
    "changelogDate": "20160707202422",
    "dto": "no",
    "service": "no",
    "entityTableName": "nivel_jardin",
    "pagination": "no"
}
