{
    "relationships": [],
    "fields": [
        {
            "fieldName": "tituloNoticia",
            "fieldType": "String"
        },
        {
            "fieldName": "articuloNoticia",
            "fieldType": "String"
        },
        {
            "fieldName": "cuerpoNoticia",
            "fieldType": "String"
        }
    ],
    "changelogDate": "20160902115251",
    "dto": "no",
    "service": "no",
    "entityTableName": "noticia",
    "pagination": "infinite-scroll"
}
