{
    "relationships": [
        {
            "relationshipName": "contratoSuministro",
            "otherEntityName": "contratoSuministro",
            "relationshipType": "many-to-one",
            "otherEntityField": "id"
        },
        {
            "relationshipName": "funcionario",
            "otherEntityName": "funcionario",
            "relationshipType": "many-to-one",
            "otherEntityField": "nombresFuncionario"
        },
        {
            "relationshipName": "documentacionCS",
            "otherEntityName": "documentacionCS",
            "relationshipType": "one-to-many",
            "otherEntityRelationshipName": "procesoCS"
        }
    ],
    "fields": [
        {
            "fieldName": "fechaProcesoCS",
            "fieldType": "ZonedDateTime"
        },
        {
            "fieldName": "tipoProcesoCS",
            "fieldType": "String",
            "fieldValidateRules": [
                "required"
            ]
        },
        {
            "fieldName": "estadoProcesoCS",
            "fieldType": "String"
        }
    ],
    "changelogDate": "20160902191608",
    "dto": "no",
    "service": "no",
    "entityTableName": "proceso_cs",
    "pagination": "no"
}
